{
	"id": "a3a31027-d9be-4013-9e91-a663615b4627",
	"name": "New Environment",
	"values": [
		{
			"key": "baseUrl",
			"value": "https://simple-books-api.glitch.me",
			"type": "default",
			"enabled": true
		},
		{
			"key": "accessToken",
			"value": "fd77fb08f7df67383f2bd9f054b347f3f61477920e115b8f422172e629c170f7",
			"type": "default",
			"enabled": true
		}
	],
	"_postman_variable_scope": "environment",
	"_postman_exported_at": "2022-09-07T06:45:05.005Z",
	"_postman_exported_using": "Postman/9.30.3-220905-0348"
}